Final_ES193DS
…
Rows: 291384 Columns: 5
── Column specification ────────────────────────────────────────────────────────
Delimiter: ","
chr  (1): site
dbl  (3): latitude, longitude, temp
date (1): date

ℹ Use `spec()` to retrieve the full column specification for this data.
ℹ Specify the column types or set `show_col_types = FALSE` to quiet this message.
`summarise()` has grouped output by 'site', 'year'. You can override using the `.groups` argument.

sst_clean |> 
  slice_sample(n=5) #get 5 random rows

# A tibble: 570 × 4
# Groups:   site, year [114]
   site   year month mean_monthly_sst
   <chr> <dbl> <ord>            <dbl>
 1 SITE1  2018 Feb               14.1
 2 SITE1  2018 Mar               13.7
 3 SITE1  2018 Aug               17.6
 4 SITE1  2018 Jan               14.5
 5 SITE1  2018 Apr               13.0
 6 SITE1  2019 May               14.4
 7 SITE1  2019 Jan               14.3
 8 SITE1  2019 Dec               14.8
 9 SITE1  2019 Apr               13.8
10 SITE1  2019 Sep               17.5
# ℹ 560 more rows
…
